{
	"Name":"Ross 308 FF PS Male",
	"Id":"22c3a91b-3bda-4cd8-a130-a133aee1d232",
	"Sex":"Male",
	"Duration":448,
	"DateType":"Week",
	"Product":{"Name":"Ross","Id":"cf0848f8-8673-490d-82ab-eeeaad08ca2a","Company":{"Name":"Aviagen","Id":"de1468dc-7d80-4736-adf4-8f92c4c4f9d7"}},
	"CurvePoints":[
		{"Day":0, "Weight":40},
		{"Day":7, "Weight":150},
		{"Day":14, "Weight":320},
		{"Day":21, "Weight":525},
		{"Day":28, "Weight":755},
		{"Day":35, "Weight":945},
		{"Day":42, "Weight":1130},
		{"Day":49, "Weight":1280},
		{"Day":56, "Weight":1420},
		{"Day":63, "Weight":1545},
		{"Day":70, "Weight":1670},
		{"Day":77, "Weight":1795},
		{"Day":84, "Weight":1920},
		{"Day":91, "Weight":2045},
		{"Day":98, "Weight":2170},
		{"Day":105, "Weight":2295},
		{"Day":112, "Weight":2420},
		{"Day":119, "Weight":2560},
		{"Day":126, "Weight":2715},
		{"Day":133, "Weight":2875},
		{"Day":140, "Weight":3035},
		{"Day":147, "Weight":3195},
		{"Day":154, "Weight":3355},
		{"Day":161, "Weight":3515},
		{"Day":168, "Weight":3675},
		{"Day":175, "Weight":3825},
		{"Day":182, "Weight":3960},
		{"Day":189, "Weight":4035},
		{"Day":196, "Weight":4090},
		{"Day":203, "Weight":4120},
		{"Day":210, "Weight":4150},
		{"Day":217, "Weight":4180},
		{"Day":224, "Weight":4210},
		{"Day":231, "Weight":4240},
		{"Day":238, "Weight":4270},
		{"Day":245, "Weight":4300},
		{"Day":252, "Weight":4330},
		{"Day":259, "Weight":4360},
		{"Day":266, "Weight":4390},
		{"Day":273, "Weight":4420},
		{"Day":280, "Weight":4450},
		{"Day":287, "Weight":4480},
		{"Day":294, "Weight":4510},
		{"Day":301, "Weight":4540},
		{"Day":308, "Weight":4570},
		{"Day":315, "Weight":4600},
		{"Day":322, "Weight":4630},
		{"Day":329, "Weight":4660},
		{"Day":336, "Weight":4690},
		{"Day":343, "Weight":4720},
		{"Day":350, "Weight":4750},
		{"Day":357, "Weight":4780},
		{"Day":364, "Weight":4810},
		{"Day":371, "Weight":4840},
		{"Day":378, "Weight":4870},
		{"Day":385, "Weight":4900},
		{"Day":392, "Weight":4930},
		{"Day":399, "Weight":4960},
		{"Day":406, "Weight":4990},
		{"Day":413, "Weight":5020},
		{"Day":420, "Weight":5050},
		{"Day":427, "Weight":5080},
		{"Day":434, "Weight":5110},
		{"Day":441, "Weight":5140},
		{"Day":448, "Weight":5170}
	]
}