{
	"Name":"Ross 708 Broiler",
	"Id":"7d436759-91ea-434b-b4f2-4fe55d5f459f",
	"Sex":"Irrelevant",
	"Duration":70,
	"DateType":"Day",
	"Product":{"Name":"Ross","Id":"cf0848f8-8673-490d-82ab-eeeaad08ca2a","Company":{"Name":"Aviagen","Id":"de1468dc-7d80-4736-adf4-8f92c4c4f9d7"}},
	"CurvePoints":[
		{"Day":0, "Weight":42},
		{"Day":1, "Weight":56},
		{"Day":2, "Weight":71},
		{"Day":3, "Weight":88},
		{"Day":4, "Weight":107},
		{"Day":5, "Weight":129},
		{"Day":6, "Weight":153},
		{"Day":7, "Weight":180},
		{"Day":8, "Weight":210},
		{"Day":9, "Weight":243},
		{"Day":10, "Weight":279},
		{"Day":11, "Weight":318},
		{"Day":12, "Weight":360},
		{"Day":13, "Weight":406},
		{"Day":14, "Weight":454},
		{"Day":15, "Weight":506},
		{"Day":16, "Weight":560},
		{"Day":17, "Weight":618},
		{"Day":18, "Weight":678},
		{"Day":19, "Weight":741},
		{"Day":20, "Weight":807},
		{"Day":21, "Weight":876},
		{"Day":22, "Weight":947},
		{"Day":23, "Weight":1021},
		{"Day":24, "Weight":1096},
		{"Day":25, "Weight":1174},
		{"Day":26, "Weight":1254},
		{"Day":27, "Weight":1335},
		{"Day":28, "Weight":1419},
		{"Day":29, "Weight":1503},
		{"Day":30, "Weight":1589},
		{"Day":31, "Weight":1677},
		{"Day":32, "Weight":1765},
		{"Day":33, "Weight":1854},
		{"Day":34, "Weight":1944},
		{"Day":35, "Weight":2035},
		{"Day":36, "Weight":2126},
		{"Day":37, "Weight":2218},
		{"Day":38, "Weight":2310},
		{"Day":39, "Weight":2402},
		{"Day":40, "Weight":2494},
		{"Day":41, "Weight":2586},
		{"Day":42, "Weight":2678},
		{"Day":43, "Weight":2770},
		{"Day":44, "Weight":2862},
		{"Day":45, "Weight":2953},
		{"Day":46, "Weight":3044},
		{"Day":47, "Weight":3134},
		{"Day":48, "Weight":3224},
		{"Day":49, "Weight":3313},
		{"Day":50, "Weight":3401},
		{"Day":51, "Weight":3488},
		{"Day":52, "Weight":3575},
		{"Day":53, "Weight":3660},
		{"Day":54, "Weight":3745},
		{"Day":55, "Weight":3828},
		{"Day":56, "Weight":3910},
		{"Day":57, "Weight":3991},
		{"Day":58, "Weight":4071},
		{"Day":59, "Weight":4149},
		{"Day":60, "Weight":4226},
		{"Day":61, "Weight":4302},
		{"Day":62, "Weight":4376},
		{"Day":63, "Weight":4448},
		{"Day":64, "Weight":4519},
		{"Day":65, "Weight":4588},
		{"Day":66, "Weight":4655},
		{"Day":67, "Weight":4721},
		{"Day":68, "Weight":4785},
		{"Day":69, "Weight":4847},
		{"Day":70, "Weight":4907}
	]
}