{
	"Name":"Ross 308 PS Female",
	"Id":"21082491-1934-42eb-a3f6-f874495f96d1",
	"Sex":"Female",
	"Duration":448,
	"DateType":"Week",
	"Product":{"Name":"Ross","Id":"cf0848f8-8673-490d-82ab-eeeaad08ca2a","Company":{"Name":"Aviagen","Id":"de1468dc-7d80-4736-adf4-8f92c4c4f9d7"}},
	"CurvePoints":[
		{"Day":0, "Weight":40},
		{"Day":7, "Weight":115},
		{"Day":14, "Weight":215},
		{"Day":21, "Weight":335},
		{"Day":28, "Weight":450},
		{"Day":35, "Weight":560},
		{"Day":42, "Weight":660},
		{"Day":49, "Weight":760},
		{"Day":56, "Weight":860},
		{"Day":63, "Weight":960},
		{"Day":70, "Weight":1060},
		{"Day":77, "Weight":1160},
		{"Day":84, "Weight":1260},
		{"Day":91, "Weight":1360},
		{"Day":98, "Weight":1460},
		{"Day":105, "Weight":1560},
		{"Day":112, "Weight":1670},
		{"Day":119, "Weight":1790},
		{"Day":126, "Weight":1915},
		{"Day":133, "Weight":2050},
		{"Day":140, "Weight":2195},
		{"Day":147, "Weight":2345},
		{"Day":154, "Weight":2500},
		{"Day":161, "Weight":2660},
		{"Day":168, "Weight":2820},
		{"Day":175, "Weight":2975},
		{"Day":182, "Weight":3120},
		{"Day":189, "Weight":3245},
		{"Day":196, "Weight":3340},
		{"Day":203, "Weight":3395},
		{"Day":210, "Weight":3435},
		{"Day":217, "Weight":3465},
		{"Day":224, "Weight":3490},
		{"Day":231, "Weight":3510},
		{"Day":238, "Weight":3530},
		{"Day":245, "Weight":3550},
		{"Day":252, "Weight":3570},
		{"Day":259, "Weight":3590},
		{"Day":266, "Weight":3610},
		{"Day":273, "Weight":3630},
		{"Day":280, "Weight":3650},
		{"Day":287, "Weight":3670},
		{"Day":294, "Weight":3690},
		{"Day":301, "Weight":3710},
		{"Day":308, "Weight":3730},
		{"Day":315, "Weight":3750},
		{"Day":322, "Weight":3770},
		{"Day":329, "Weight":3790},
		{"Day":336, "Weight":3810},
		{"Day":343, "Weight":3830},
		{"Day":350, "Weight":3850},
		{"Day":357, "Weight":3870},
		{"Day":364, "Weight":3890},
		{"Day":371, "Weight":3910},
		{"Day":378, "Weight":3930},
		{"Day":385, "Weight":3950},
		{"Day":392, "Weight":3970},
		{"Day":399, "Weight":3990},
		{"Day":406, "Weight":4010},
		{"Day":413, "Weight":4030},
		{"Day":420, "Weight":4050},
		{"Day":427, "Weight":4070},
		{"Day":434, "Weight":4090},
		{"Day":441, "Weight":4110},
		{"Day":448, "Weight":4130}
	]
}