{
	"Name":"Bovans Brown (Female only)",
	"Id":"bd7574f6-fe6c-463a-a3e7-1c367830e204",
	"Sex":"Female",
	"Duration":630,
	"DateType":"Week",
	"Product":{"Name":"Bovans (Layers)","Id":"ed77ca17-09b4-4828-87b9-d6fa8c2e2683","Company":{"Name":"Hendrix Genetics","Id":"bf3eff77-f380-41b2-a805-c55690403d80"}},
	"CurvePoints":[
		{"Day":119, "Weight":1514},
		{"Day":126, "Weight":1576},
		{"Day":133, "Weight":1630},
		{"Day":140, "Weight":1676},
		{"Day":147, "Weight":1713},
		{"Day":154, "Weight":1750},
		{"Day":161, "Weight":1767},
		{"Day":168, "Weight":1782},
		{"Day":175, "Weight":1796},
		{"Day":182, "Weight":1809},
		{"Day":189, "Weight":1821},
		{"Day":196, "Weight":1831},
		{"Day":203, "Weight":1841},
		{"Day":210, "Weight":1850},
		{"Day":217, "Weight":1858},
		{"Day":224, "Weight":1866},
		{"Day":231, "Weight":1873},
		{"Day":238, "Weight":1879},
		{"Day":245, "Weight":1885},
		{"Day":252, "Weight":1891},
		{"Day":259, "Weight":1896},
		{"Day":266, "Weight":1901},
		{"Day":273, "Weight":1906},
		{"Day":280, "Weight":1911},
		{"Day":287, "Weight":1915},
		{"Day":294, "Weight":1919},
		{"Day":301, "Weight":1923},
		{"Day":308, "Weight":1927},
		{"Day":315, "Weight":1931},
		{"Day":322, "Weight":1935},
		{"Day":329, "Weight":1939},
		{"Day":336, "Weight":1942},
		{"Day":343, "Weight":1946},
		{"Day":350, "Weight":1949},
		{"Day":357, "Weight":1953},
		{"Day":364, "Weight":1956},
		{"Day":371, "Weight":1959},
		{"Day":378, "Weight":1962},
		{"Day":385, "Weight":1965},
		{"Day":392, "Weight":1967},
		{"Day":399, "Weight":1969},
		{"Day":406, "Weight":1971},
		{"Day":413, "Weight":1973},
		{"Day":420, "Weight":1975},
		{"Day":427, "Weight":1976},
		{"Day":434, "Weight":1978},
		{"Day":441, "Weight":1980},
		{"Day":448, "Weight":1981},
		{"Day":455, "Weight":1982},
		{"Day":462, "Weight":1984},
		{"Day":469, "Weight":1985},
		{"Day":476, "Weight":1986},
		{"Day":483, "Weight":1987},
		{"Day":490, "Weight":1988},
		{"Day":497, "Weight":1989},
		{"Day":504, "Weight":1990},
		{"Day":511, "Weight":1991},
		{"Day":518, "Weight":1991},
		{"Day":525, "Weight":1992},
		{"Day":532, "Weight":1993},
		{"Day":539, "Weight":1993},
		{"Day":546, "Weight":1994},
		{"Day":553, "Weight":1995},
		{"Day":560, "Weight":1995},
		{"Day":567, "Weight":1996},
		{"Day":574, "Weight":1996},
		{"Day":581, "Weight":1997},
		{"Day":588, "Weight":1997},
		{"Day":595, "Weight":1998},
		{"Day":602, "Weight":1998},
		{"Day":609, "Weight":1999},
		{"Day":616, "Weight":1999},
		{"Day":623, "Weight":2000},
		{"Day":630, "Weight":2000}
	]
}